<job id="8330824" owner="mhofmann@redhat.com" result="Fail" status="Completed" retention_tag="scratch">
  <whiteboard>fail</whiteboard>
  <recipeSet priority="Normal" response="ack" id="12399293">
    <recipe id="14645695" job_id="8330824" recipe_set_id="12399293" whiteboard="" role="None" kickstart_url="http://beaker.engineering.redhat.com/kickstart/12586189" ks_meta="" kernel_options="" kernel_options_post="" start_time="2023-09-19 18:38:50" finish_time="2023-09-19 18:48:37" duration="0:09:47" result="Fail" status="Completed" distro="Fedora-Rawhide-20230919.n.0" arch="x86_64" family="Fedorarawhide" variant="Server" system="kvm-02-guest19.lab.eng.rdu2.redhat.com">
      <autopick random="false"/>
      <watchdog/>
      <installation install_started="2023-09-19 18:40:08" install_finished="2023-09-19 18:45:10" postinstall_finished="2023-09-19 18:46:53"/>
      <packages/>
      <ks_appends/>
      <roles>
        <role value="None">
          <system value="kvm-02-guest19.lab.eng.rdu2.redhat.com"/>
        </role>
      </roles>
      <repos/>
      <distroRequires>
        <and>
          <distro_family op="=" value="Fedorarawhide"/>
          <distro_variant op="=" value="Server"/>
        </and>
      </distroRequires>
      <hostRequires>
          <hostname op="like" value="kvm-%-guest%.lab.eng.rdu2.redhat.com"/>
      <system_type value="Machine"/></hostRequires>
      <partitions/>
      <logs>
        <log href="https://beaker.engineering.redhat.com/recipes/14645695/logs/console.log" name="console.log"/>
        <log href="https://beaker.engineering.redhat.com/recipes/14645695/logs/systemd_journal.log" name="systemd_journal.log"/>
        <log href="https://beaker.engineering.redhat.com/recipes/14645695/logs/anaconda.log" name="anaconda.log"/>
        <log href="https://beaker.engineering.redhat.com/recipes/14645695/logs/sys.log" name="sys.log"/>
        <log href="https://beaker.engineering.redhat.com/recipes/14645695/logs/storage.log" name="storage.log"/>
        <log href="https://beaker.engineering.redhat.com/recipes/14645695/logs/program.log" name="program.log"/>
        <log href="https://beaker.engineering.redhat.com/recipes/14645695/logs/ks.cfg" name="ks.cfg"/>
        <log href="https://beaker.engineering.redhat.com/recipes/14645695/logs/packaging.log" name="packaging.log"/>
        <log href="https://beaker.engineering.redhat.com/recipes/14645695/logs/lvm.log" name="lvm.log"/>
        <log href="https://beaker.engineering.redhat.com/recipes/14645695/logs/hawkey.log" name="hawkey.log"/>
        <log href="https://beaker.engineering.redhat.com/recipes/14645695/logs/boot.log" name="boot.log"/>
      </logs>
      <task name="fail" role="None" id="166401668" result="Fail" status="Completed" start_time="2023-09-19 18:48:12" finish_time="2023-09-19 18:48:24" duration="0:00:12">
        <fetch url="https://gitlab.com/api/v4/projects/cki-project%2fdocumentation/repository/archive.zip#content/docs/test-maintainers/status-meaning/restraint/fail"/>
        <roles>
          <role value="None">
            <system value="kvm-02-guest19.lab.eng.rdu2.redhat.com"/>
          </role>
        </roles>
        <logs>
          <log href="https://beaker.engineering.redhat.com/recipes/14645695/tasks/166401668/logs/taskout.log" name="taskout.log"/>
          <log href="https://beaker.engineering.redhat.com/recipes/14645695/tasks/166401668/logs/harness.log" name="harness.log"/>
        </logs>
        <results>
          <result path="/" start_time="2023-09-19 18:48:23" score="None" result="Fail" id="777320332">None<logs><log href="https://beaker.engineering.redhat.com/recipes/14645695/tasks/166401668/results/777320332/logs/dmesg.log" name="dmesg.log"/><log href="https://beaker.engineering.redhat.com/recipes/14645695/tasks/166401668/results/777320332/logs/avc.log" name="avc.log"/></logs></result>
        </results>
      </task>
      <task name="pass" role="None" id="166401669" result="Pass" status="Completed" start_time="2023-09-19 18:48:24" finish_time="2023-09-19 18:48:37" duration="0:00:13">
        <fetch url="https://gitlab.com/api/v4/projects/cki-project%2fdocumentation/repository/archive.zip#content/docs/test-maintainers/status-meaning/restraint/pass"/>
        <roles>
          <role value="None">
            <system value="kvm-02-guest19.lab.eng.rdu2.redhat.com"/>
          </role>
        </roles>
        <logs>
          <log href="https://beaker.engineering.redhat.com/recipes/14645695/tasks/166401669/logs/taskout.log" name="taskout.log"/>
          <log href="https://beaker.engineering.redhat.com/recipes/14645695/tasks/166401669/logs/harness.log" name="harness.log"/>
        </logs>
        <results>
          <result path="/" start_time="2023-09-19 18:48:36" score="None" result="Pass" id="777320356">None<logs><log href="https://beaker.engineering.redhat.com/recipes/14645695/tasks/166401669/results/777320356/logs/avc.log" name="avc.log"/></logs></result>
        </results>
      </task>
    </recipe>
  </recipeSet>
</job>
